[{"questionText":"What is the new var?", "category": "Easy", "correctIndex": 0, "answers": ["let", "int", "string", "double"]},
{"questionText":"Which of the following functions has a default parameter?", "category": "Easy", "correctIndex": 1, "answers": ["function () {}", "function (a=0) {}", "function (a,b) {}", "function (...a) {}"]},
{"questionText":"Which of the following invocations is an arrow function?", "category": "Easy", "correctIndex": 2, "answers": ["function f() {}", "var f = function () {}", "() => {}", "{d:function() {}"]},
{"questionText":"Which of the following demonstrates object destructuring?", "category": "Easy", "correctIndex": 3, "answers": ["let a = {a:20}", "let a = {a:20, b:20}", "let a, b = {a:20, b:20}", "let {a} = {a:20, b:20}"]},
{"questionText":"Which of the following demonstrates simplified properties?", "category": "Easy", "correctIndex": 0, "answers": ["let a = 20, b = {a}", "let a = 20, b = {a:a}", "let a = 20, b = {b:20}", "let a = 20, b = {a:20, b:a}"]},
{"questionText":"What would be printed out? let a = NaN; console.log(Number.isNaN(a));", "category": "Easy", "correctIndex": 1, "answers": ["false", "true", "null", "undefined"]},
{"questionText":"What would be printed out? let a = 'abc'; console.log(Number.isNaN(a));", "category": "Easy", "correctIndex": 0, "answers": ["false", "true", "null", "undefined"]},
{"questionText":"What would be printed out? let a = 'abc'; console.log(isNaN(a));", "category": "Medium", "correctIndex": 1, "answers": ["false", "true", "null", "undefined"]},
{"questionText":"What would be printed out? let a = 'abc'; console.log([...a].join());", "category": "Medium", "correctIndex": 2, "answers": ["abc", "'a','b','c'", "a,b,c", "a b c"]},
{"questionText":"Which of the following functions has a rest parameter?", "category": "Easy", "correctIndex": 3, "answers": ["function () {}", "function (a=0) {}", "function (a,b) {}", "function (...a) {}"]},
{"questionText":"What is the name of the method that will be called when an ES class called Question is instantiaed?", "category": "Easy", "correctIndex": 2, "answers": ["Question", "new", "constructor", "ctor"]},
{"questionText":"Which ES collection can be used to implement private fields in a class?", "category": "Medium", "correctIndex": 2, "answers": ["Map", "Set", "WeakMap", "WeakSet"]},
{"questionText":"Which ES collection(s) has/have an add() method?", "category": "Easy", "correctIndex": 3, "answers": ["Map", "Set", "WeakMap", "All of the above"]},
{"questionText":"Which ES collection(s) has/have an get() method?", "category": "Medium", "correctIndex": 0, "answers": ["Map", "Set", "WeakSet", "All of the above"]},
{"questionText":"which of the following would create two new items in a Map?", "category": "Medium", "correctIndex": 2, "answers": ["let m = [0, 1]", "let m = [[0, 1], [1, 2]", "let m = new Map([[0, 1], [1, 2])", "let m = new Map([0, 2)"]},
{"questionText":"Which new loop construct has been added to ES6?", "category": "Easy", "correctIndex": 2, "answers": ["for", "for in", "for of", "None of the above"]},
{"questionText":"Which of the following functions would return the square of the input?", "category": "Medium", "correctIndex": 0, "answers": ["a => a * a", "function (a) { a * a }", "(a) => { a * a }", "function (a) { return exp(a, 2) }"]},
{"questionText":"Which of the following functions would return an array of numbers from if the input was '012'?", "category": "Medium", "correctIndex": 1, "answers": ["a => [a].map(i => i]", "a => [...a].map(i => Number.parseInt(i)]", "a => [...a].forEach(i => Number.parseInt(i)]", "All of the above"]},
{"questionText":"What keyword is used with a property accessor?", "category": "Easy", "correctIndex": 0, "answers": ["get", "let", "set", "Set"]},
{"questionText":"What would be printed out? class Base {} class Derived extends Base {} let d = new Derived(); console.log(d instanceof Base)", "category": "Medium", "correctIndex": 2, "answers": ["null", "undefined", "true", "false"]}
]